include "map.inc"
include "robot.inc"

# size of the whole simulation
size [15 15]

window
( 
  size [ 745 448 ] 
  scale 41
)

# load an environment bitmap
floorplan
( 
  bitmap "bitmap/NamePPP.png"
  size [15 15 3]
)

robot
(
      name "bob1"
      pose [0 0 0 0]
      color "green"
)

